\relax 
\providecommand\hyper@newdestlabel[2]{}
\catcode `:\active 
\catcode `;\active 
\catcode `!\active 
\catcode `?\active 
\providecommand\HyperFirstAtBeginDocument{\AtBeginDocument}
\HyperFirstAtBeginDocument{\ifx\hyper@anchor\@undefined
\global\let\oldcontentsline\contentsline
\gdef\contentsline#1#2#3#4{\oldcontentsline{#1}{#2}{#3}}
\global\let\oldnewlabel\newlabel
\gdef\newlabel#1#2{\newlabelxx{#1}#2}
\gdef\newlabelxx#1#2#3#4#5#6{\oldnewlabel{#1}{{#2}{#3}}}
\AtEndDocument{\ifx\hyper@anchor\@undefined
\let\contentsline\oldcontentsline
\let\newlabel\oldnewlabel
\fi}
\fi}
\global\let\hyper@last\relax 
\gdef\HyperFirstAtBeginDocument#1{#1}
\providecommand\HyField@AuxAddToFields[1]{}
\providecommand\HyField@AuxAddToCoFields[2]{}
\babel@aux{french}{}
\@writefile{toc}{\contentsline {section}{\numberline {1}Introduction}{2}{section.1}\protected@file@percent }
\@writefile{toc}{\contentsline {section}{\numberline {2}R\IeC {\'e}sultat du programme}{2}{section.2}\protected@file@percent }
\@writefile{toc}{\contentsline {subsection}{\numberline {2.1}Test avec jeu d'essai}{2}{subsection.2.1}\protected@file@percent }
\@writefile{toc}{\contentsline {subsection}{\numberline {2.2}Temps d'ex\IeC {\'e}cution}{2}{subsection.2.2}\protected@file@percent }
\@writefile{lof}{\contentsline {figure}{\numberline {1}{\ignorespaces Graphique Temps ex\IeC {\'e}cution monothread\IeC {\'e} et multithread\IeC {\'e}\relax }}{2}{figure.caption.2}\protected@file@percent }
\providecommand*\caption@xref[2]{\@setref\relax\@undefined{#1}}
\newlabel{fig:Graphique Temps ex\IeC {\'e}cution}{{1}{2}{Graphique Temps exécution monothreadé et multithreadé\relax }{figure.caption.2}{}}
\@writefile{toc}{\contentsline {subsection}{\numberline {2.3}Hypoth\IeC {\`e}se}{3}{subsection.2.3}\protected@file@percent }
\@writefile{lof}{\contentsline {figure}{\numberline {2}{\ignorespaces Graphique Temps ex\IeC {\'e}cution monothread\IeC {\'e} et multithread\IeC {\'e} avec le temps de cr\IeC {\'e}ation de thread\relax }}{3}{figure.caption.3}\protected@file@percent }
\newlabel{fig:Graphique Temps ex\IeC {\'e}cution avec le temps de cr\IeC {\'e}ation de thread}{{2}{3}{Graphique Temps exécution monothreadé et multithreadé avec le temps de création de thread\relax }{figure.caption.3}{}}
\@writefile{toc}{\contentsline {section}{\numberline {3}Conclusion}{3}{section.3}\protected@file@percent }
